introducao ciencia de dados - Visualização de Dados com ggplot2
…
pinguins

# A tibble: 344 × 8
   especie           ilha      comprimento…¹ profu…² compr…³ massa…⁴ sexo    ano
   <fct>             <fct>             <dbl>   <dbl>   <int>   <int> <fct> <int>
 1 Pinguim-de-adélia Torgersen          39.1    18.7     181    3750 macho  2007
 2 Pinguim-de-adélia Torgersen          39.5    17.4     186    3800 fêmea  2007
 3 Pinguim-de-adélia Torgersen          40.3    18       195    3250 fêmea  2007
 4 Pinguim-de-adélia Torgersen          NA      NA        NA      NA <NA>   2007
 5 Pinguim-de-adélia Torgersen          36.7    19.3     193    3450 fêmea  2007
 6 Pinguim-de-adélia Torgersen          39.3    20.6     190    3650 macho  2007
 7 Pinguim-de-adélia Torgersen          38.9    17.8     181    3625 fêmea  2007
 8 Pinguim-de-adélia Torgersen          39.2    19.6     195    4675 macho  2007
 9 Pinguim-de-adélia Torgersen          34.1    18.1     193    3475 <NA>   2007
10 Pinguim-de-adélia Torgersen          42      20.2     190    4250 <NA>   2007
# … with 334 more rows, and abbreviated variable names ¹​comprimento_bico,
#   ²​profundidade_bico, ³​comprimento_nadadeira, ⁴​massa_corporal

diamante

# A tibble: 53,940 × 10
   preco quilate corte     cor   transparencia profun…¹ tabela     x     y     z
   <int>   <dbl> <ord>     <ord> <ord>            <dbl>  <dbl> <dbl> <dbl> <dbl>
 1   326    0.23 Ideal     E     SI2               61.5     55  3.95  3.98  2.43
 2   326    0.21 Premium   E     SI1               59.8     61  3.89  3.84  2.31
 3   327    0.23 Bom       E     VS1               56.9     65  4.05  4.07  2.31
 4   334    0.29 Premium   I     VS2               62.4     58  4.2   4.23  2.63
 5   335    0.31 Bom       J     SI2               63.3     58  4.34  4.35  2.75
 6   336    0.24 Muito Bom J     VVS2              62.8     57  3.94  3.96  2.48
 7   336    0.24 Muito Bom I     VVS1              62.3     57  3.95  3.98  2.47
 8   337    0.26 Muito Bom H     SI1               61.9     55  4.07  4.11  2.53
 9   337    0.22 Justo     E     VS2               65.1     61  3.87  3.78  2.49
10   338    0.23 Muito Bom H     VS1               59.4     61  4     4.05  2.39
# … with 53,930 more rows, and abbreviated variable name ¹​profundidade

dados_gapminder

# A tibble: 1,704 × 6
   pais        continente   ano expectativa_de_vida populacao pib_per_capita
   <fct>       <fct>      <int>               <dbl>     <int>          <dbl>
 1 Afeganistão Ásia        1952                28.8   8425333           779.
 2 Afeganistão Ásia        1957                30.3   9240934           821.
 3 Afeganistão Ásia        1962                32.0  10267083           853.
 4 Afeganistão Ásia        1967                34.0  11537966           836.
 5 Afeganistão Ásia        1972                36.1  13079460           740.
 6 Afeganistão Ásia        1977                38.4  14880372           786.
 7 Afeganistão Ásia        1982                39.9  12881816           978.
 8 Afeganistão Ásia        1987                40.8  13867957           852.
 9 Afeganistão Ásia        1992                41.7  16317921           649.
10 Afeganistão Ásia        1997                41.8  22227415           635.
# … with 1,694 more rows
…
